# Fdb version 3
["pdflatex"] 1716453782 "main.tex" "main.pdf" "main" 1716453782
  "/etc/texmf/web2c/texmf.cnf" 1715005067 475 c0e671620eb5563b2130f56340a5fde8 ""
  "/usr/share/texlive/texmf-dist/fonts/map/fontname/texfonts.map" 1577235249 3524 cb3e574dea2d1052e39280babc910dc8 ""
  "/usr/share/texlive/texmf-dist/fonts/tfm/public/amsfonts/cmextra/cmex7.tfm" 1246382020 1004 54797486969f23fa377b128694d548df ""
  "/usr/share/texlive/texmf-dist/fonts/tfm/public/amsfonts/cmextra/cmex8.tfm" 1246382020 988 bdf658c3bfc2d96d3c8b02cfc1c94c20 ""
  "/usr/share/texlive/texmf-dist/fonts/tfm/public/amsfonts/symbols/msam10.tfm" 1246382020 916 f87d7c45f9c908e672703b83b72241a3 ""
  "/usr/share/texlive/texmf-dist/fonts/tfm/public/amsfonts/symbols/msam7.tfm" 1246382020 928 2dc8d444221b7a635bb58038579b861a ""
  "/usr/share/texlive/texmf-dist/fonts/tfm/public/amsfonts/symbols/msbm10.tfm" 1246382020 908 2921f8a10601f252058503cc6570e581 ""
  "/usr/share/texlive/texmf-dist/fonts/tfm/public/amsfonts/symbols/msbm7.tfm" 1246382020 940 228d6584342e91276bf566bcf9716b83 ""
  "/usr/share/texlive/texmf-dist/fonts/tfm/public/cm/cmbx12.tfm" 1136768653 1324 c910af8c371558dc20f2d7822f66fe64 ""
  "/usr/share/texlive/texmf-dist/fonts/tfm/public/cm/cmex10.tfm" 1136768653 992 662f679a0b3d2d53c1b94050fdaa3f50 ""
  "/usr/share/texlive/texmf-dist/fonts/tfm/public/cm/cmmi12.tfm" 1136768653 1524 4414a8315f39513458b80dfc63bff03a ""
  "/usr/share/texlive/texmf-dist/fonts/tfm/public/cm/cmmi6.tfm" 1136768653 1512 f21f83efb36853c0b70002322c1ab3ad ""
  "/usr/share/texlive/texmf-dist/fonts/tfm/public/cm/cmmi8.tfm" 1136768653 1520 eccf95517727cb11801f4f1aee3a21b4 ""
  "/usr/share/texlive/texmf-dist/fonts/tfm/public/cm/cmr12.tfm" 1136768653 1288 655e228510b4c2a1abe905c368440826 ""
  "/usr/share/texlive/texmf-dist/fonts/tfm/public/cm/cmr17.tfm" 1136768653 1292 296a67155bdbfc32aa9c636f21e91433 ""
  "/usr/share/texlive/texmf-dist/fonts/tfm/public/cm/cmr6.tfm" 1136768653 1300 b62933e007d01cfd073f79b963c01526 ""
  "/usr/share/texlive/texmf-dist/fonts/tfm/public/cm/cmr8.tfm" 1136768653 1292 21c1c5bfeaebccffdb478fd231a0997d ""
  "/usr/share/texlive/texmf-dist/fonts/tfm/public/cm/cmsy10.tfm" 1136768653 1124 6c73e740cf17375f03eec0ee63599741 ""
  "/usr/share/texlive/texmf-dist/fonts/tfm/public/cm/cmsy6.tfm" 1136768653 1116 933a60c408fc0a863a92debe84b2d294 ""
  "/usr/share/texlive/texmf-dist/fonts/tfm/public/cm/cmsy8.tfm" 1136768653 1120 8b7d695260f3cff42e636090a8002094 ""
  "/usr/share/texlive/texmf-dist/fonts/type1/public/amsfonts/cm/cmbx12.pfb" 1248133631 32080 340ef9bf63678554ee606688e7b5339d ""
  "/usr/share/texlive/texmf-dist/fonts/type1/public/amsfonts/cm/cmmi12.pfb" 1248133631 36741 fa121aac0049305630cf160b86157ee4 ""
  "/usr/share/texlive/texmf-dist/fonts/type1/public/amsfonts/cm/cmr12.pfb" 1248133631 32722 d7379af29a190c3f453aba36302ff5a9 ""
  "/usr/share/texlive/texmf-dist/tex/context/base/mkii/supp-pdf.mkii" 1461363279 71627 94eb9990bed73c364d7f53f960cc8c5b ""
  "/usr/share/texlive/texmf-dist/tex/generic/atbegshi/atbegshi.sty" 1575674566 24708 5584a51a7101caf7e6bbf1fc27d8f7b1 ""
  "/usr/share/texlive/texmf-dist/tex/generic/bigintcalc/bigintcalc.sty" 1576625341 40635 c40361e206be584d448876bba8a64a3b ""
  "/usr/share/texlive/texmf-dist/tex/generic/bitset/bitset.sty" 1576016050 33961 6b5c75130e435b2bfdb9f480a09a39f9 ""
  "/usr/share/texlive/texmf-dist/tex/generic/etexcmds/etexcmds.sty" 1576625273 7734 b98cbb34c81f667027c1e3ebdbfce34b ""
  "/usr/share/texlive/texmf-dist/tex/generic/gettitlestring/gettitlestring.sty" 1576625223 8371 9d55b8bd010bc717624922fb3477d92e ""
  "/usr/share/texlive/texmf-dist/tex/generic/iftex/iftex.sty" 1583617216 6501 4011d89d9621e0b0901138815ba5ff29 ""
  "/usr/share/texlive/texmf-dist/tex/generic/infwarerr/infwarerr.sty" 1575499628 8356 7bbb2c2373aa810be568c29e333da8ed ""
  "/usr/share/texlive/texmf-dist/tex/generic/intcalc/intcalc.sty" 1576625065 31769 002a487f55041f8e805cfbf6385ffd97 ""
  "/usr/share/texlive/texmf-dist/tex/generic/kvdefinekeys/kvdefinekeys.sty" 1576878844 5412 d5a2436094cd7be85769db90f29250a6 ""
  "/usr/share/texlive/texmf-dist/tex/generic/kvsetkeys/kvsetkeys.sty" 1576624944 13807 952b0226d4efca026f0e19dd266dcc22 ""
  "/usr/share/texlive/texmf-dist/tex/generic/ltxcmds/ltxcmds.sty" 1600895880 17859 4409f8f50cd365c68e684407e5350b1b ""
  "/usr/share/texlive/texmf-dist/tex/generic/pdfescape/pdfescape.sty" 1576015897 19007 15924f7228aca6c6d184b115f4baa231 ""
  "/usr/share/texlive/texmf-dist/tex/generic/pdftexcmds/pdftexcmds.sty" 1593379760 20089 80423eac55aa175305d35b49e04fe23b ""
  "/usr/share/texlive/texmf-dist/tex/generic/uniquecounter/uniquecounter.sty" 1576624663 7008 f92eaa0a3872ed622bbf538217cd2ab7 ""
  "/usr/share/texlive/texmf-dist/tex/latex/amsfonts/amsfonts.sty" 1359763108 5949 3f3fd50a8cc94c3d4cbf4fc66cd3df1c ""
  "/usr/share/texlive/texmf-dist/tex/latex/amsfonts/amssymb.sty" 1359763108 13829 94730e64147574077f8ecfea9bb69af4 ""
  "/usr/share/texlive/texmf-dist/tex/latex/amsfonts/umsa.fd" 1359763108 961 6518c6525a34feb5e8250ffa91731cff ""
  "/usr/share/texlive/texmf-dist/tex/latex/amsfonts/umsb.fd" 1359763108 961 d02606146ba5601b5645f987c92e6193 ""
  "/usr/share/texlive/texmf-dist/tex/latex/amsmath/amsbsy.sty" 1622667781 2222 da905dc1db75412efd2d8f67739f0596 ""
  "/usr/share/texlive/texmf-dist/tex/latex/amsmath/amsgen.sty" 1622667781 4173 bc0410bcccdff806d6132d3c1ef35481 ""
  "/usr/share/texlive/texmf-dist/tex/latex/amsmath/amsmath.sty" 1636758526 87648 07fbb6e9169e00cb2a2f40b31b2dbf3c ""
  "/usr/share/texlive/texmf-dist/tex/latex/amsmath/amsopn.sty" 1636758526 4128 8eea906621b6639f7ba476a472036bbe ""
  "/usr/share/texlive/texmf-dist/tex/latex/amsmath/amstext.sty" 1636758526 2444 926f379cc60fcf0c6e3fee2223b4370d ""
  "/usr/share/texlive/texmf-dist/tex/latex/atveryend/atveryend.sty" 1576191570 19336 ce7ae9438967282886b3b036cfad1e4d ""
  "/usr/share/texlive/texmf-dist/tex/latex/auxhook/auxhook.sty" 1576625391 3935 57aa3c3e203a5c2effb4d2bd2efbc323 ""
  "/usr/share/texlive/texmf-dist/tex/latex/base/article.cls" 1636758526 20144 8a7de377ae7a11ee924a7499611f5a9d ""
  "/usr/share/texlive/texmf-dist/tex/latex/base/atbegshi-ltx.sty" 1636758526 3034 3bfb87122e6fa8758225c0dd3cbaceba ""
  "/usr/share/texlive/texmf-dist/tex/latex/base/atveryend-ltx.sty" 1636758526 2462 754d6b31b2ab5a09bb72c348ace2ec75 ""
  "/usr/share/texlive/texmf-dist/tex/latex/base/inputenc.sty" 1622581934 5049 969aec05d5f39c43f8005910498fcf90 ""
  "/usr/share/texlive/texmf-dist/tex/latex/base/size12.clo" 1636758526 8449 bc7344e882df4d7e51c046514dee83e4 ""
  "/usr/share/texlive/texmf-dist/tex/latex/bbold/bbold.sty" 1137109921 1827 b8dfd92843f5ac03d85dbd86854854d5 ""
  "/usr/share/texlive/texmf-dist/tex/latex/changebar/changebar.sty" 1520799830 35612 e52be3e59d9ac9e1324aa64676443d99 ""
  "/usr/share/texlive/texmf-dist/tex/latex/enumitem/enumitem.sty" 1561238569 51697 f8f08183cd2080d9d18a41432d651dfb ""
  "/usr/share/texlive/texmf-dist/tex/latex/graphics-cfg/color.cfg" 1459978653 1213 620bba36b25224fa9b7e1ccb4ecb76fd ""
  "/usr/share/texlive/texmf-dist/tex/latex/graphics-def/pdftex.def" 1601931164 19103 48d29b6e2a64cb717117ef65f107b404 ""
  "/usr/share/texlive/texmf-dist/tex/latex/graphics/keyval.sty" 1622581934 2671 4de6781a30211fe0ea4c672e4a2a8166 ""
  "/usr/share/texlive/texmf-dist/tex/latex/hycolor/hycolor.sty" 1580250785 17914 4c28a13fc3d975e6e81c9bea1d697276 ""
  "/usr/share/texlive/texmf-dist/tex/latex/hyperref/hpdftex.def" 1623096352 49890 0bb76a5b745d92e86aed6f3f93e334f0 ""
  "/usr/share/texlive/texmf-dist/tex/latex/hyperref/hyperref-langpatches.def" 1623096352 1777 940b1aa83773bc035eb882e8d6842769 ""
  "/usr/share/texlive/texmf-dist/tex/latex/hyperref/hyperref.sty" 1623096352 230915 97a8817f13de4e61bbc3592cb2caa995 ""
  "/usr/share/texlive/texmf-dist/tex/latex/hyperref/nameref.sty" 1612734870 13242 133e617c5eebffdd05e421624022b267 ""
  "/usr/share/texlive/texmf-dist/tex/latex/hyperref/pd1enc.def" 1623096352 14132 c9404e8e78123ef0d1007c34d1d6da51 ""
  "/usr/share/texlive/texmf-dist/tex/latex/hyperref/puenc.def" 1623096352 117004 86586f287ddfad919a0a4bd68934277a ""
  "/usr/share/texlive/texmf-dist/tex/latex/kvoptions/kvoptions.sty" 1602274869 22521 d2fceb764a442a2001d257ef11db7618 ""
  "/usr/share/texlive/texmf-dist/tex/latex/l3backend/l3backend-pdftex.def" 1642022539 29921 f0f4f870357ebfb8fe58ed9ed4ee9b92 ""
  "/usr/share/texlive/texmf-dist/tex/latex/letltxmacro/letltxmacro.sty" 1575499565 5766 13a9e8766c47f30327caf893ece86ac8 ""
  "/usr/share/texlive/texmf-dist/tex/latex/listings/listings.cfg" 1585170648 1830 e31effa752c61538383451ae21332364 ""
  "/usr/share/texlive/texmf-dist/tex/latex/listings/listings.sty" 1585170648 80964 64e57373f36316e4a09b517cbf1aba2e ""
  "/usr/share/texlive/texmf-dist/tex/latex/listings/lstlang1.sty" 1585170648 204271 bae5b2d457283e99567249c1990510be ""
  "/usr/share/texlive/texmf-dist/tex/latex/listings/lstlang2.sty" 1585170648 93649 5c560d0867c5758cf33716b703b23a26 ""
  "/usr/share/texlive/texmf-dist/tex/latex/listings/lstmisc.sty" 1585170648 77022 ee25ce086f4a79d8cf73bac6f94c02a5 ""
  "/usr/share/texlive/texmf-dist/tex/latex/refcount/refcount.sty" 1576624809 9878 9e94e8fa600d95f9c7731bb21dfb67a4 ""
  "/usr/share/texlive/texmf-dist/tex/latex/rerunfilecheck/rerunfilecheck.sty" 1575674187 9715 b051d5b493d9fe5f4bc251462d039e5f ""
  "/usr/share/texlive/texmf-dist/tex/latex/url/url.sty" 1388531844 12796 8edb7d69a20b857904dd0ea757c14ec9 ""
  "/usr/share/texlive/texmf-dist/tex/latex/xcolor/xcolor.sty" 1635798903 56029 3f7889dab51d620aa43177c391b7b190 ""
  "/usr/share/texlive/texmf-dist/web2c/texmf.cnf" 1644012257 39432 7155514e09a3d69036fac785183a21c2 ""
  "/usr/share/texmf/web2c/texmf.cnf" 1644012257 39432 7155514e09a3d69036fac785183a21c2 ""
  "/var/lib/texmf/fonts/map/pdftex/updmap/pdftex.map" 1715005070 4379155 98693266ff65f58d9f98aff394de12d2 ""
  "/var/lib/texmf/web2c/pdftex/pdflatex.fmt" 1715005423 2800024 9fc92765a33bd95084821b24b425fb9c ""
  "code1.tex" 1716453781 44 41e2bd3c4f1a1d4f3bd9c562567119ca ""
  "code2.tex" 1716453781 44 2ddbe77ddf2c484883e7a865b25ccaea ""
  "main.aux" 1716453782 932 1cf7ce0caea372904ec652a972f8caed "pdflatex"
  "main.cb" 1716453782 0 d41d8cd98f00b204e9800998ecf8427e "pdflatex"
  "main.cb2" 1716453782 0 d41d8cd98f00b204e9800998ecf8427e "pdflatex"
  "main.out" 1716453782 444 921c071d20aa86c949c04f36d8f9a791 "pdflatex"
  "main.tex" 1716453781 1528 0ef7782dd0f771e492f03a2c30a6c92a ""
  "tex.tex" 1716453781 44 0d8ea0f993dd53acdaf84e6257f94825 ""
  (generated)
  "main.aux"
  "main.cb"
  "main.cb2"
  "main.log"
  "main.out"
  "main.pdf"
